<svg width="180" height="43" viewBox="0 0 180 43" fill="none" xmlns="http://www.w3.org/2000/svg">
<path d="M61.7436 0.000976562V14.6992L53.4357 0.000976562H47.7573V24.9955H53.5763V10.2711L61.9191 24.9955H67.5635V21.3845V0.000976562H61.7436Z" fill="white"/>
<path d="M132.582 0.000976562V4.83849H139.593V24.9955H145.412V4.83849H152.388V0.000976562H132.582Z" fill="white"/>
<path d="M155.049 0.000976562H160.868V24.9956H155.049V0.000976562Z" fill="white"/>
<path d="M180 4.83849V0.000976562H170.71H164.856V24.9955H170.71H180V20.158H170.71V14.5137H180V9.67615H170.71V4.83849H180Z" fill="white"/>
<path d="M81.1249 0.000976562C74.3136 0.000976562 70.5073 5.58807 70.5073 12.4804C70.5073 19.3727 74.0901 24.9602 81.1249 24.9602C88.1598 24.9602 91.7425 19.3727 91.7425 12.4804C91.7425 5.58807 87.9363 0.000976562 81.1249 0.000976562ZM81.1249 19.4827C78.341 19.4827 76.4303 16.348 76.4303 12.4808C76.4303 8.61362 78.2247 5.4785 81.1249 5.4785C84.0254 5.4785 85.8196 8.61362 85.8196 12.4808C85.8196 16.348 83.9089 19.4827 81.1249 19.4827Z" fill="white"/>
<path d="M4.41956 29.4302V31.9009H8.00028V42.1964H10.9727V31.9009H14.5356V29.4302H4.41956Z" fill="white"/>
<path d="M26.0027 29.4302V31.9009H29.5833V42.1964H32.5558V31.9009H36.1186V29.4302H26.0027Z" fill="white"/>
<path d="M20.3522 29.4302C16.8733 29.4302 14.9292 32.2838 14.9292 35.804C14.9292 39.3243 16.7591 42.1781 20.3522 42.1781C23.9452 42.1781 25.7751 39.3243 25.7751 35.804C25.7751 32.2838 23.8311 29.4302 20.3522 29.4302ZM20.3522 39.3805C18.9303 39.3805 17.9544 37.7794 17.9544 35.8043C17.9544 33.8291 18.8708 32.2278 20.3522 32.2278C21.8336 32.2278 22.75 33.8291 22.75 35.8043C22.75 37.7794 21.7741 39.3805 20.3522 39.3805Z" fill="white"/>
<path d="M63.4425 39.7073V29.4302H60.4803V42.1514H63.4425H67.5635V39.7073H63.4425Z" fill="white"/>
<path d="M42.673 29.4304H39.8393L35.8573 42.1512H38.8187L39.4611 39.8673H43.0265L43.672 42.1512H46.6334L42.673 29.4304ZM40.2103 37.4049L41.2453 33.3404L42.3671 37.4049H40.2103Z" fill="white"/>
<path d="M54.5562 29.4304H51.7225L47.7405 42.1512H50.7019L51.3443 39.8673H54.9097L55.5552 42.1512H58.5166L54.5562 29.4304ZM52.0935 37.4049L53.1285 33.3404L54.2503 37.4049H52.0935Z" fill="white"/>
<path d="M109.711 0.000976562C108.826 1.99623 103.116 14.8638 103.116 14.8638L96.5206 0.000976562H90.8479L101.932 24.9779H104.3L115.384 0.000976562H109.711Z" fill="white"/>
<path d="M43.3938 4.83849V0.000976562H28.25V24.9955H43.3938V20.158H34.1037V14.5137H43.3938V9.67615H34.1037V4.83849H43.3938Z" fill="white"/>
<path d="M10.2394 18.5323H4.41968V24.9955H10.2394V18.5323Z" fill="white"/>
<path d="M20.2297 15.7404C21.4294 14.984 22.4231 13.9423 23.1221 12.7083C23.8608 11.4239 24.2418 9.96512 24.2256 8.48359C24.2332 7.35293 24.0129 6.23234 23.5778 5.1887C23.1616 4.1861 22.561 3.27046 21.8073 2.48923C21.0571 1.71696 20.164 1.09783 19.1777 0.666296C18.1614 0.220088 17.0625 -0.00689214 15.9526 0.000159402H4.4196V12.1295H2.14673L0 16.967H14.9014L19.003 24.9947H24.962L20.2297 15.7404ZM17.7231 11.0783C17.426 11.4207 17.0564 11.6926 16.6412 11.8745C16.2259 12.0563 15.7754 12.1434 15.3223 12.1295H10.2394V4.83773H15.3223C15.7658 4.83811 16.2034 4.94026 16.6013 5.13632C17.0036 5.33052 17.3662 5.59785 17.6708 5.92468C17.9802 6.26217 18.2239 6.6545 18.3893 7.08148C18.5671 7.53952 18.6563 8.02718 18.6521 8.51852C18.6759 9.45833 18.3442 10.3725 17.7231 11.0783Z" fill="white"/>
<path d="M132.582 19.3255V9.67606H128.3L124.007 0.00109863H121.638L110.554 24.9778H116.227C117.112 22.9825 122.822 10.115 122.822 10.115L129.418 24.9778H135.09L132.582 19.3255Z" fill="white"/>
</svg>
